704709 684665
500122 967900
332860 124549
424015 388274
650341 478686
884874 293634
32632 878765
239880 679903
394481 306143
278140 458511
566662 691363
48093 977401
931138 954918
50367 171434
703645 6966
948681 720882
480307 125472
168029 139137
713718 656500
420815 318931
276269 708312
82549 201610
405993 962348
920394 652726
246745 718516
977580 386631
860620 806693
59612 812662
721680 346330
619979 570038
674169 339571
707094 438373
554990 702318
187338 758564
138661 920394
918089 193243
704030 308200
865816 854595
260075 130271
37167 303103
898564 517627
128609 735509
261502 617290
221900 604592
462679 520510
5649 605341
344876 243227
959076 71840
465289 719764
502878 441206
498468 163823
356832 578456
850000 453323
426313 391460
455533 763462
75849 590349
188450 647235
746618 318214
63775 974466
53758 326987
328470 202334
468398 513046
451816 686912
451762 70126
594298 809919
675793 823128
839200 336271
565715 811286
585192 329172
192349 181555
682516 350583
519651 410236
745692 615054
429036 563402
558523 67656
798853 191818
731462 460069
257577 705879
854742 376353
404185 490617
673759 143106
540676 983676
65566 960471
883684 337868
363305 156883
197210 274454
846507 32262
571202 544806
816248 368701
370075 159186
901368 395069
967531 835731
218689 997186
835195 858480
366691 307120
450861 669177
746669 35018
412679 717723
225326 975838
893530 280531
733334 563750
597821 263908
793970 775712
731032 483981
696951 38960
582973 618607
228883 58912
145589 419546
143329 679750
705109 825078
950192 173005
363585 536141
686460 106834
411728 748348
354228 28350
673780 275307
437138 176515
701375 585743
75124 28897
131539 285277
676324 848866
641995 981266
998181 67639
126185 917115
631799 685588
63752 496718
834778 562630
746665 634672
783794 824599
467453 731347
531794 543705
516559 144215
21491 863002
491662 771649
26016 38680
232840 149692
726264 466434
240297 830427
149633 806427
268364 518189
517587 854663
305329 588556
285643 82005
960515 254319
547281 851372
651027 738770
898564 734960
739278 105921
151827 406950
119386 307991
988967 999817
762325 900410
675502 532054
104086 607730
683862 214001
752682 104517
691749 230799
656207 457024
754155 387332
917803 765575
791877 863732
257174 377579
465577 549503
152408 876708
374402 151917
372021 489996
464201 395467
642714 669396
234939 599500
2325 392334
847418 543336
623068 9718
614333 956140
296010 489839
758645 523268
634756 358649
174408 535268
983676 379025
240382 299447
641602 250013
401771 997340
497176 86018
758538 70091
484040 426183
131908 704967
108986 383352
973675 589819
635384 898274
323315 396983
632776 121567
127048 296519
890304 16965
794920 517168
296065 708760
344666 766043
325908 723286
108322 649370
482946 112904
678190 17994
192401 574447
428858 391102
928432 676825
582853 793556
689871 969135
672944 204309
789904 311075
870930 941860
353396 436237
592567 562053
261446 181549
429731 684943
729489 23416
813737 608052
