87588 966944 525
48237 50857 296
847196 749185 525
93188 465260 449
403735 437530 449
304762 363173 441
269508 413177 449
948052 691252 525
928309 947496 507
974969 244947 525
955943 84411 525
181484 329343 443
195173 125710 383
358544 990013 525
406204 674560 509
900708 556359 525
724208 236829 509
43136 627955 509
955922 393075 525
166456 900865 525
362463 495772 449
400145 603592 470
918365 10069 525
456021 997724 525
161159 543728 470
226709 983138 525
158336 339410 443
894535 447765 525
817394 977850 525
73492 301465 443
957850 744694 525
467278 832360 509
468599 207132 449
234235 554552 470
596509 52326 470
918695 247677 525
860519 138161 525
201703 780815 509
505323 861470 525
745712 491636 509
918514 808453 525
192482 663956 509
708278 472065 509
630343 413569 509
401571 922474 525
530583 57744 470
915567 875464 476
581658 39573 470
349033 199096 443
925108 703800 525
503192 778729 509
184376 220823 386
308517 655245 509
467715 218951 449
345451 35806 443
365164 383410 423
247461 562611 470
305907 737179 509
742993 202236 509
504380 400812 449
86473 112402 354
703181 235175 509
143505 395007 443
118954 925504 525
228967 107508 386
911874 28989 525
808925 251115 509
401692 816585 509
937693 667037 525
256645 411180 449
592504 441935 470
774311 73380 509
934615 916110 476
292180 127393 443
433903 385326 449
84381 610280 470
892463 587031 525
987592 833391 525
926872 699661 525
975493 319127 525
766057 413872 509
523668 733430 509
642441 521946 509
294310 704693 509
738570 822974 468
480456 561171 470
741809 440562 509
52865 231564 443
713701 596725 509
364655 289661 441
669848 701444 442
235703 373503 441
164535 805358 509
802308 74301 509
908504 285945 525
965538 168461 525
683910 157685 509
194202 339687 443
439664 830031 509
235429 860605 525
10100 979258 525
310244 810608 509
945791 179536 525
940188 853509 507
135063 231004 443
480528 814062 509
173323 848339 525
113011 752696 509
449988 582262 470
461055 222744 449
410372 723251 509
566900 560596 421
171867 715444 509
860654 532867 525
259875 894376 525
739869 399086 509
74501 533866 470
638018 740208 504
755190 914373 525
502018 965967 525
652074 663898 429
629779 79249 509
340944 219705 443
399932 883826 525
83805 907555 525
742998 477377 509
961205 532382 525
599054 337806 470
254718 537573 470
302508 274219 389
441564 64886 449
354028 637060 509
779875 835749 468
406716 559994 470
809518 390843 509
265270 693301 509
831596 11601 509
596666 644242 509
949845 129091 525
946667 128347 525
408316 66182 443
591646 626758 509
503759 624967 470
495517 662357 509
638556 206770 509
79392 722742 509
799866 857324 525
542545 431702 470
84191 923700 525
892667 760812 525
261071 88609 443
720498 877720 525
628901 719387 504
372305 334363 441
149668 720901 509
546081 904232 525
458393 199538 449
351107 482790 449
953521 957406 383
623243 195670 470
947415 363155 525
720695 485436 509
385822 101777 443
95272 633765 509
945927 338619 525
815982 490418 509
526373 6923 470
548679 823005 509
720432 10284 509
706880 806302 468
761094 583145 509
312231 700687 509
881473 73586 525
437581 229160 449
628708 29672 509
597580 537427 452
459040 180448 449
704953 177152 509
586946 187852 470
159691 117815 383
349333 486164 449
164238 289556 443
205347 471776 449
560465 192016 470
523565 105935 470
3237 288846 443
557365 890502 525
583840 173219 470
569447 677721 509
545248 9413 470
818084 633773 504
532400 987361 525
379225 546094 470
404900 902204 525
644972 276221 509
181021 623846 470
13263 850685 525
906745 275470 525
382491 244495 441
556156 467442 470
771841 852733 525
224172 245464 443
86478 799364 509
337363 879038 525
667511 413768 509
206370 215470 373
417440 364009 449
711917 453802 509
520238 335375 470
858100 262909 525
979030 111496 525
253829 182042 443
101824 978414 525
814906 84021 509
597227 218771 470
597607 130217 470
997864 31219 525
892103 553468 525
503681 403892 449
168902 957609 525
268978 817713 509
610910 295898 470
986423 365353 525
561786 724799 509
443421 728937 509
577485 723789 509
971771 335503 525
151240 933754 525
486540 408396 449
90935 203083 383
48048 846865 525
87011 615252 470
553064 377876 470
17237 232675 443
70245 482710 449
470415 728192 509
24710 454747 449
463037 701299 509
1891 58949 340
668435 629506 442
421424 907106 525
606645 453329 470
888535 354114 525
336593 705164 509
783136 77247 509
394642 644470 509
892306 502258 525
185090 801310 509
304263 791760 509
