71055 213510 383
336389 841538 525
667654 77330 509
325499 703849 509
157231 229575 386
87378 108544 354
122329 904788 525
966544 502675 525
545101 878215 525
115108 125736 349
463115 697249 509
232083 340732 407
992658 631236 525
309323 233476 407
740215 793654 468
213280 789714 509
352153 109481 443
37484 965120 525
296320 37444 443
1464 967579 525
950340 570990 525
590400 293410 470
435295 812041 509
80080 315120 443
892358 359438 525
254028 516425 470
809300 396290 509
494247 644902 509
516334 645411 509
247801 9913 443
931956 427848 525
781731 228878 509
158301 400508 443
860655 446920 525
909512 109286 525
437474 541368 470
12834 194899 383
478976 616078 470
750373 819333 468
186247 532024 470
54960 821618 509
20683 463124 449
403325 327222 441
514662 582483 452
402216 743682 509
586546 800232 509
128409 811462 509
662465 538339 509
980375 523973 525
177669 336762 443
731252 594418 509
68120 114806 354
673623 877726 525
757540 226344 509
517964 167754 470
886503 132621 525
156387 896855 525
47960 76767 340
198302 141718 383
67448 208700 383
595132 879858 525
268692 830701 509
87084 873548 525
381326 27771 443
73103 965 340
873698 338560 525
907339 251356 525
267258 295841 407
514436 423679 470
116701 934632 525
155584 804412 509
406737 551751 470
506686 211055 449
541369 433904 470
676614 266068 509
865696 819892 525
421488 703837 509
801713 30469 509
766841 385754 509
259593 108409 443
160162 530316 470
300900 516930 470
147962 541333 470
358125 683199 509
667676 905074 525
91048 424013 449
895935 638806 525
316010 43492 443
501885 114943 449
63953 339462 443
567069 485541 470
239838 825598 509
499585 585050 470
521260 217150 470
867522 646595 525
618270 689134 509
906810 592032 525
872988 950964 507
213650 815110 509
853065 716761 525
431173 104909 449
949948 73771 525
254955 691585 509
81104 288299 443
162371 852744 525
947276 564356 525
705817 426459 509
402855 613798 470
866681 766397 525
2034 879083 525
91110 472196 449
948152 173301 525
130211 788813 509
756800 163299 509
299953 641100 509
637358 793106 504
715437 503973 509
7420 822140 509
206479 762117 509
802024 614398 509
223602 340401 443
156670 244070 443
323713 337981 384
16858 209021 383
952054 848967 507
159747 240329 443
608802 34652 470
845358 540690 525
549996 895845 525
204863 152598 383
978538 446692 525
467887 102194 449
520869 498606 470
522928 183224 470
749608 73680 509
269101 920062 525
865787 523503 525
668905 152642 509
48455 885230 525
460148 352581 449
252601 350424 441
14349 493358 449
792241 63678 509
512075 944995 525
932782 535043 525
13359 201326 383
352363 871932 525
759668 215009 509
162247 77774 383
705926 874077 525
782131 238586 509
885699 809580 525
853845 716924 525
789912 708640 468
733738 298955 509
739380 489326 509
226598 278835 443
772161 857113 525
636440 353285 509
994363 939039 507
805347 14940 509
621100 173305 470
824065 64236 509
286641 20188 443
466349 787610 509
768720 996560 525
994478 399802 525
171055 515331 470
972581 552571 525
527561 342354 470
545804 337673 470
701648 577078 509
88866 152334 375
313597 745931 509
475269 89111 449
499370 758142 509
419692 937085 525
277076 614959 470
163671 29196 383
198732 297966 443
858904 155277 525
455213 829347 509
927694 93078 525
270766 749463 509
872147 479859 525
989689 967111 458
905404 319404 525
491107 316786 449
710455 434782 509
227077 735422 509
846035 509194 525
992220 603376 525
428824 882861 525
391619 431587 449
47474 436641 449
296935 557884 470
768423 857663 525
816844 259936 509
995123 771342 525
533205 597362 452
38266 218067 386
666759 553311 509
201371 823854 509
535624 776399 509
905531 215568 525
191695 210250 373
731851 13245 509
730275 667628 504
214990 838390 525
441949 824694 509
495658 25406 449
880336 797908 525
518789 835220 509
293970 255790 407
352770 677472 509
93584 798101 509
400005 474464 449
824980 607704 509
731760 577821 509
5246 807608 509
936419 507106 525
820861 837263 419
782636 892281 525
190699 934287 525
499650 270892 449
118155 233334 443
266891 463333 449
109691 757415 509
996119 292669 525
615440 975477 525
562918 208863 470
467120 953058 525
406074 443878 449
897691 269598 525
587056 925815 525
314896 512563 470
749592 414316 509
425717 35878 449
112768 563598 470
963798 889179 507
549088 886307 525
424108 650151 509
94836 777592 509
28161 176825 383
832791 988584 525
60442 461566 449
248473 687189 509
235092 178319 443
252869 145055 443
703132 25381 509
161516 455505 449
385821 361404 423
543466 978622 525
267936 986872 525
992142 596543 525
468662 33549 449
690164 552582 509
47239 370405 443
452669 811260 509
183831 93710 383
365744 440282 449
424911 973502 525
426924 733614 509
168964 284688 443
694675 510041 509
972961 727462 525
578164 322008 470
635923 930796 525
10315 751880 509
675477 95823 509
486052 558963 470
634557 597210 509
907513 961034 507
825284 87285 509
102690 650764 509
738950 631344 504
569328 502792 470
892810 845434 445
891844 907128 445
447399 287848 449
349377 852985 525
536709 401997 470
855567 155983 525
700435 321694 509
452595 644263 509
161927 310294 443
272549 168676 443
918840 765822 525
836097 882352 525
712006 533847 509
716548 593809 509
379792 252717 441
790834 206891 509
183010 984024 525
759817 948347 525
424987 903508 525
185744 549340 470
731764 903632 525
388828 184776 443
796259 112868 509
