71055 213510
336389 841538
667654 77330
325499 703849
157231 229575
87378 108544
122329 904788
966544 502675
545101 878215
115108 125736
463115 697249
232083 340732
992658 631236
309323 233476
740215 793654
213280 789714
352153 109481
37484 965120
296320 37444
1464 967579
950340 570990
590400 293410
435295 812041
80080 315120
892358 359438
254028 516425
809300 396290
494247 644902
516334 645411
247801 9913
931956 427848
781731 228878
158301 400508
860655 446920
909512 109286
437474 541368
12834 194899
478976 616078
750373 819333
186247 532024
54960 821618
20683 463124
403325 327222
514662 582483
402216 743682
586546 800232
128409 811462
662465 538339
980375 523973
177669 336762
731252 594418
68120 114806
673623 877726
757540 226344
517964 167754
886503 132621
156387 896855
47960 76767
198302 141718
67448 208700
595132 879858
268692 830701
87084 873548
381326 27771
73103 965
873698 338560
907339 251356
267258 295841
514436 423679
116701 934632
155584 804412
406737 551751
506686 211055
541369 433904
676614 266068
865696 819892
421488 703837
801713 30469
766841 385754
259593 108409
160162 530316
300900 516930
147962 541333
358125 683199
667676 905074
91048 424013
895935 638806
316010 43492
501885 114943
63953 339462
567069 485541
239838 825598
499585 585050
521260 217150
867522 646595
618270 689134
906810 592032
872988 950964
213650 815110
853065 716761
431173 104909
949948 73771
254955 691585
81104 288299
162371 852744
947276 564356
705817 426459
402855 613798
866681 766397
2034 879083
91110 472196
948152 173301
130211 788813
756800 163299
299953 641100
637358 793106
715437 503973
7420 822140
206479 762117
802024 614398
223602 340401
156670 244070
323713 337981
16858 209021
952054 848967
159747 240329
608802 34652
845358 540690
549996 895845
204863 152598
978538 446692
467887 102194
520869 498606
522928 183224
749608 73680
269101 920062
865787 523503
668905 152642
48455 885230
460148 352581
252601 350424
14349 493358
792241 63678
512075 944995
932782 535043
13359 201326
352363 871932
759668 215009
162247 77774
705926 874077
782131 238586
885699 809580
853845 716924
789912 708640
733738 298955
739380 489326
226598 278835
772161 857113
636440 353285
994363 939039
805347 14940
621100 173305
824065 64236
286641 20188
466349 787610
768720 996560
994478 399802
171055 515331
972581 552571
527561 342354
545804 337673
701648 577078
88866 152334
313597 745931
475269 89111
499370 758142
419692 937085
277076 614959
163671 29196
198732 297966
858904 155277
455213 829347
927694 93078
270766 749463
872147 479859
989689 967111
905404 319404
491107 316786
710455 434782
227077 735422
846035 509194
992220 603376
428824 882861
391619 431587
47474 436641
296935 557884
768423 857663
816844 259936
995123 771342
533205 597362
38266 218067
666759 553311
201371 823854
535624 776399
905531 215568
191695 210250
731851 13245
730275 667628
214990 838390
441949 824694
495658 25406
880336 797908
518789 835220
293970 255790
352770 677472
93584 798101
400005 474464
824980 607704
731760 577821
5246 807608
936419 507106
820861 837263
782636 892281
190699 934287
499650 270892
118155 233334
266891 463333
109691 757415
996119 292669
615440 975477
562918 208863
467120 953058
406074 443878
897691 269598
587056 925815
314896 512563
749592 414316
425717 35878
112768 563598
963798 889179
549088 886307
424108 650151
94836 777592
28161 176825
832791 988584
60442 461566
248473 687189
235092 178319
252869 145055
703132 25381
161516 455505
385821 361404
543466 978622
267936 986872
992142 596543
468662 33549
690164 552582
47239 370405
452669 811260
183831 93710
365744 440282
424911 973502
426924 733614
168964 284688
694675 510041
972961 727462
578164 322008
635923 930796
10315 751880
675477 95823
486052 558963
634557 597210
907513 961034
825284 87285
102690 650764
738950 631344
569328 502792
892810 845434
891844 907128
447399 287848
349377 852985
536709 401997
855567 155983
700435 321694
452595 644263
161927 310294
272549 168676
918840 765822
836097 882352
712006 533847
716548 593809
379792 252717
790834 206891
183010 984024
759817 948347
424987 903508
185744 549340
731764 903632
388828 184776
796259 112868
