786676 717373
183340 708492
907532 496691
773008 489862
836571 263809
988899 435298
980325 397007
586408 746907
676777 136277
105395 156048
55474 568227
684297 438145
348171 352272
583934 722435
876056 833957
272727 871549
84002 897206
295671 221117
978970 145016
872049 790992
857577 143473
146500 591489
474048 854345
251729 134787
172619 399924
927813 989661
611063 354621
514562 430053
483174 577199
34178 620700
953219 777652
692149 790140
456072 545189
964859 399462
567986 584902
222664 637440
528076 790499
619032 789374
178097 67582
990600 65751
169129 829342
681208 498443
586910 318260
415381 763682
122081 197834
982730 536875
451738 59574
468572 35338
133740 63644
626607 968237
760623 11926
263472 712684
37959 170980
256773 490661
899190 62119
463906 905365
499172 839936
625088 331693
123919 819246
462810 70280
595736 522388
598032 141795
54628 278794
109644 990648
107459 64035
470007 578816
810359 509573
211698 436103
828455 882882
841572 457938
471983 577382
336400 227655
63251 326966
86548 476775
853169 703186
593132 362373
964096 57026
577930 560091
56528 199401
896365 680966
744489 820156
784729 999505
898263 582422
307955 112653
804876 164692
807963 265044
961545 326186
966155 110111
630026 183965
92518 927128
695398 532297
818647 918450
841428 1561
599078 595418
832687 499092
453044 220732
324140 2643
411099 471928
725487 210995
789006 208798
399432 688885
405480 586616
625159 989893
278881 113910
734415 300123
398489 738855
225812 213013
35737 519573
299907 668661
273906 891538
159988 275043
865639 568625
117832 687056
499271 316098
60770 178390
861394 473812
430082 903944
13768 631740
308086 523014
631734 572529
229370 783128
673591 102860
988145 606959
130552 198900
183509 946938
949004 77033
214995 858345
388624 519618
644386 324933
344189 688448
941685 311020
451151 699173
22277 431321
68728 616788
886621 21984
344337 670750
513028 294463
425323 916321
812105 490931
253449 786469
65579 526911
603296 224254
584826 367167
133688 711759
265457 263535
534570 773568
168194 959352
106580 13453
611650 231956
425800 278180
437397 500442
649645 984525
81604 129446
268583 273412
445039 530176
510454 7048
186178 258766
283157 974253
171576 835485
374636 70379
381462 371131
111168 986486
717847 870342
651301 828042
24948 682454
897777 768029
351082 896403
437610 265695
56482 41714
379549 205901
645223 815672
799057 967820
303753 273171
575054 391910
201880 725365
471939 128767
65062 826661
375299 166829
919689 954969
970724 717137
588530 2822
509232 106719
562123 103631
404648 351568
209614 602073
87906 785488
736708 644674
83289 969192
289620 500783
3389 737243
1583 858446
171662 39388
130354 101132
239213 939889
459370 10708
16453 194102
794536 483102
345869 864951
48820 213277
806075 555441
570459 751916
913586 230151
971639 283653
646190 341887
514553 760956
299102 76773
118231 760484
435280 535512
319899 663299
321506 570770
340211 666080
652580 407144
228062 872720
994423 184228
763129 279640
144413 975603
601838 759895
234265 437655
443687 587276
4547 656315
834880 816247
103144 648227
723052 282070
17436 768534
458899 475115
624330 321038
859347 711485
980961 508104
749380 724040
889281 965000
761368 710018
87707 792685
291982 111310
982623 434189
279198 210508
22968 380206
378850 675101
247802 90657
447032 468561
407527 333105
744920 94137
791778 199172
270624 410197
731491 50572
231845 976537
18677 80432
175372 911312
33879 638618
106487 65204
481558 441466
517259 71609
989381 905479
863918 289957
146921 377927
655430 124637
797416 423683
206300 95987
451884 741744
186221 525933
133603 372450
985285 64227
461494 394703
965648 482102
919739 148886
748193 692055
277182 933687
1261 825146
206746 475792
72508 340757
626028 908077
54280 51018
215730 729798
150026 287083
539029 618587
808108 456909
348805 621154
921461 140319
316799 120664
67567 106329
165905 433825
44441 743899
35062 34766
846532 311512
604281 394260
745000 236906
748533 40674
44224 415495
505697 976437
703519 141023
167769 750404
946014 49290
488411 163668
912112 934929
874498 504316
186987 982989
763896 333768
502349 838580
999714 777706
248498 84016
790522 360587
123846 176396
287838 16875
858493 629982
576994 204389
986071 151398
275717 254791
24684 129822
122994 748846
511344 406677
184997 345628
338381 667322
481432 959076
860833 406205
207975 796284
305018 675845
994997 983631
149495 213306
3879 555379
456975 909435
935477 338842
167706 722960
888407 651327
12123 497742
538326 10461
932794 784089
482573 748750
665136 688197
578149 606026
