706159 787709 468
439424 800619 509
170649 739951 509
277926 76590 443
561193 393578 470
662370 583012 509
798948 225823 509
454047 314418 449
523274 626709 509
580888 111493 470
534088 121414 470
377806 420874 449
208564 43841 383
50062 360348 443
672221 794940 504
196640 65939 383
454581 183290 449
764338 697527 504
455558 326965 449
430850 570763 470
158343 998151 525
957535 628961 525
599739 766737 509
507708 389552 449
712509 896277 525
961189 790847 525
716662 679208 504
711805 698880 504
216597 61983 386
113778 583098 470
753648 140591 509
901265 422049 525
591610 178745 470
472544 209714 449
231555 474777 449
596616 550334 434
137750 300249 443
60598 868790 525
720111 182382 509
337102 287295 389
692453 425616 509
150062 956185 525
758850 628569 504
365074 460014 449
57018 268914 443
703473 415548 509
123006 404797 443
716220 418492 509
550332 246175 470
198524 988067 525
624860 161663 470
700973 638123 442
290241 449367 449
140519 189918 383
786967 364452 509
399562 904225 525
354921 548980 470
892354 486642 525
309131 57484 443
391526 869145 525
392600 172092 443
969153 48827 525
668529 304882 509
675966 645272 442
390413 997617 525
12703 995301 525
939933 529244 525
978710 893458 507
789730 195919 509
299513 177724 443
80059 777363 509
114007 68234 354
158833 643582 509
967972 728655 525
724538 110327 509
109116 525670 470
601143 302465 470
661493 205471 509
647600 320404 509
637674 893221 525
564880 452445 470
384480 995886 525
25085 772846 509
733427 743357 424
291516 712887 509
972831 91581 525
96830 990890 525
788344 403561 509
877599 461156 525
453759 203277 449
787410 201404 509
568842 856117 525
236117 699173 509
442468 529534 470
631522 434516 509
701213 135704 509
263127 586187 470
975496 523874 525
321576 863653 525
281874 17702 443
717017 413453 509
627313 279588 509
549962 763426 509
320961 909509 525
730802 432037 509
228486 322302 443
598423 79555 470
697164 639312 442
906036 742633 525
786584 257363 509
833346 983773 525
123497 106411 349
822850 197566 509
937248 529914 525
944360 746172 525
590999 179136 470
715935 23220 509
905135 688122 525
747360 166005 509
63732 258583 443
388673 428079 449
599585 221307 470
991781 133761 525
673366 49275 509
120350 830809 509
28847 650556 509
5843 205044 383
41641 11856 324
650308 32254 509
676898 343243 509
839662 25344 525
16528 596555 470
686528 789900 504
459546 706160 509
397404 374437 436
697585 529837 509
690864 641412 442
478058 716754 509
824629 273962 509
701702 721482 504
575765 466799 470
919597 223065 525
276632 628761 509
197520 352860 443
467431 151577 449
587863 425498 470
858390 498397 525
153407 566534 470
684171 169708 509
148974 785338 509
129692 65348 354
835018 360889 509
561749 169822 470
168954 142329 383
911757 318041 525
24682 897269 525
365848 837087 509
977092 686669 525
571361 456559 470
998347 887731 507
420547 334739 449
680589 552603 509
756172 64439 509
799024 122857 509
698802 272314 509
353885 254027 441
218573 408844 443
500719 560377 470
913306 848989 476
920196 200743 525
988716 106586 525
990480 789469 525
765975 852039 525
128375 313230 443
521532 484010 470
792320 970465 525
74206 57795 335
297156 595147 470
45950 379796 443
271762 253116 407
94061 172863 383
357071 82396 443
304328 136346 443
66091 639425 509
735713 710984 424
453654 126095 449
296700 43429 443
613791 415454 470
241814 559237 470
959028 728684 525
135465 231458 443
413695 372197 449
192965 753771 509
658110 715107 504
554329 704955 509
886670 922036 476
648586 323763 509
364671 892672 525
314724 139535 443
613009 571968 434
346027 620028 470
707455 626250 509
297955 66796 443
582668 881782 525
241403 18899 443
487068 902028 525
909259 420357 525
381477 48939 443
823723 639330 504
303942 475607 449
664329 483350 509
802470 394182 509
178925 665931 509
758316 656110 504
878409 447979 525
147122 24166 375
657403 211665 509
879298 531975 525
617168 165077 470
593388 699566 509
137915 231257 443
514361 949420 525
849044 953709 507
447688 497829 444
652647 897031 525
952758 567742 525
26143 918029 525
689456 435473 509
83477 184681 383
945710 548912 525
59370 915345 525
501411 679987 509
88498 497307 449
31819 183358 383
427200 154700 449
378739 796612 509
499732 405768 449
60297 20732 340
426623 325131 449
