858745 335447 525
578126 989955 525
227833 279570 443
115081 666879 509
858517 188667 525
675856 857747 525
439385 669932 509
945029 754305 525
424873 298110 449
232684 440085 449
793664 988230 525
174622 705115 509
757226 540609 509
935648 458106 525
104721 650513 509
764399 58355 509
169292 605440 470
487205 180832 449
187082 354695 443
458851 885880 525
770270 132933 509
379465 678879 509
961385 461564 525
893793 862665 445
829565 828097 375
989031 680284 525
470857 179382 449
465430 142515 449
279373 726295 509
946464 824490 525
989135 51988 525
216795 94395 386
818700 416273 509
745558 616698 509
755813 289647 509
292288 555412 470
600512 405873 470
283035 891032 525
268899 758042 509
456756 861215 525
322624 834946 509
383016 591276 470
45907 293341 443
195382 812541 509
157823 63787 383
13068 716716 509
702666 772387 504
211372 233312 443
616017 96409 470
53706 14920 340
776638 425331 509
443873 140140 449
319986 952526 525
804559 596510 509
346629 134713 443
33487 832360 509
571302 26269 470
58817 31103 340
874253 803932 525
410983 83962 449
819097 834034 450
839306 646144 525
479960 632326 509
821118 182940 509
510308 295535 449
258356 555173 470
804977 204447 509
625612 440773 470
813477 182811 509
987406 527147 525
718002 847664 525
654688 246871 509
339952 925224 525
360842 155550 443
423095 459579 418
794651 468807 509
590940 40205 470
642390 527047 509
939206 772259 525
722600 492255 509
29527 9162 308
775233 564150 509
270491 373751 441
134251 818185 509
334454 222699 443
347800 299251 441
303846 533927 470
148556 921246 525
91634 742995 509
707485 358342 509
718809 638002 504
959263 836330 525
137463 361946 443
457799 500646 444
440842 399127 449
8271 173309 383
897723 864373 445
76739 849524 525
904749 982210 507
121429 645968 509
224837 38251 386
669833 962488 525
578953 597323 434
105669 564913 470
972872 542985 525
124718 734369 509
73461 710178 509
193927 78650 383
769292 664945 504
916416 305625 525
161554 951950 525
203789 716796 509
430084 897310 525
763541 933247 525
976085 966192 458
648561 31378 509
45762 49802 314
562702 938338 525
126642 267381 443
225681 994718 525
141835 309356 443
650215 608876 509
141242 765165 509
729179 745993 424
736110 697345 504
195096 260804 443
219100 555257 470
531189 271803 470
961700 593558 525
274416 351261 441
805340 548198 509
708407 707917 349
835186 884617 525
989322 79149 525
956282 667282 525
394232 501169 449
284783 655744 509
111633 164480 383
889272 512987 525
938948 111210 525
884443 48053 525
594767 803099 509
411689 557507 470
205617 34474 383
858828 962977 507
568487 973558 525
480796 912414 525
702666 447672 509
773917 179590 509
668295 379195 509
164306 762024 509
152542 914185 525
50457 592662 470
549160 862240 525
550532 96274 470
207219 322739 443
221247 523474 470
667245 191066 509
722397 742594 424
227576 944092 525
470941 583280 470
900676 822426 525
93513 550160 470
398647 782441 509
381258 187826 443
844119 559767 525
129080 180992 383
788748 706521 468
706486 931357 525
624212 480645 470
65931 594675 470
639874 800458 504
352658 958625 525
19705 146013 375
173100 238516 443
621718 921755 525
358849 548859 470
168463 511339 449
37974 238440 443
875250 633235 525
758578 38600 509
515697 468963 470
921713 466164 525
570110 148655 470
31312 441412 449
348577 176212 443
963321 256792 525
18420 441995 449
90779 175551 383
230290 952027 525
931660 974059 507
267708 19894 443
29199 394702 443
991257 872004 507
796752 849628 525
1891 58949 340
668435 629506 442
421424 907106 525
606645 453329 470
888535 354114 525
336593 705164 509
783136 77247 509
394642 644470 509
892306 502258 525
185090 801310 509
304263 791760 509
