694078 725605
180738 326201
542971 124755
482854 508281
186986 661759
939676 986724
196871 119305
599342 280741
691329 456847
845081 643041
207452 761085
3222 619749
947538 31027
686090 776678
468905 277896
527275 219690
785577 112404
873574 313038
641425 314834
2078 566647
594838 62740
649962 886423
906934 563446
892751 722294
86681 745212
167884 484840
480710 310101
415872 11482
561737 434907
378223 245488
784017 300126
975560 891934
278882 528178
928297 501641
683910 338351
180184 823870
389131 462832
537051 362478
468024 491726
497269 198776
101527 776975
262054 842939
307502 710011
647541 275700
818293 484402
501337 532630
401377 150894
84470 703286
186923 575237
599149 812551
622052 687351
64822 41447
837379 916525
310729 244486
72836 936130
355221 800958
872015 162262
426077 29636
746825 670344
252011 260782
672631 865221
985121 871842
43670 481366
962352 868898
757396 253020
751122 298974
284074 134412
324704 456166
213686 602931
731647 495434
425350 621485
935622 753530
917862 694651
663333 78084
209440 319471
515387 503945
296133 935858
775624 88235
915466 451360
986688 918231
334655 924763
970418 56869
880982 533115
166130 850366
167395 852115
939179 346284
922181 524841
475049 621970
835970 255445
899893 295879
338314 969629
133014 209044
778572 658698
78099 340879
368425 452322
378454 321583
536037 847037
8291 766034
663499 192001
955367 25542
721644 135423
534401 806319
320615 359349
805689 672843
411607 763215
96948 204528
695459 984535
916833 80300
568017 5869
123463 894903
222726 459135
942022 874008
319835 601486
338792 611620
214867 91226
216042 1118
197922 91993
581515 717659
423831 352501
389492 979917
719172 204194
603749 413979
929051 38893
415713 724599
65816 260567
988148 186346
398347 583349
113541 385632
32988 122784
19401 103664
678803 256937
906247 27485
735948 235756
285951 698
793852 752257
565723 783427
57544 692511
223557 164328
532158 718195
385783 273201
66842 528712
504843 953862
930032 284235
655813 502081
843606 120720
677831 866083
574881 875916
409831 324893
416359 738610
873576 842307
436651 531499
630442 924558
379219 874906
64448 338875
75839 456945
240284 879533
305953 421176
462541 217109
85562 826349
642072 626540
512759 444886
113239 422409
688871 94836
363265 672829
765305 169685
315318 162408
143045 380599
480284 450639
198450 271114
29631 340111
226565 194557
140362 637807
333015 938431
844768 686024
978769 31590
457786 809311
631313 856385
384618 204571
879866 869171
568745 392452
493136 814703
984224 654081
537507 16083
379953 56844
140980 43328
752986 687744
711939 986552
380386 482674
322735 403286
316088 415275
622788 689279
710250 213616
744148 198654
544710 385037
325572 723483
984072 167879
902351 628193
919370 496747
388726 259918
617295 130328
442929 107360
745637 370728
638408 211499
868816 379949
941734 849755
969790 499557
72684 668638
497224 284395
609545 55349
135824 162005
97701 611871
799763 152586
633490 405061
24497 743008
522034 165594
237806 364321
181526 819554
255531 37493
853052 683638
120929 423406
733439 934142
29622 917020
669691 334072
561334 29778
519415 680616
570389 877740
770718 611822
274624 536950
373073 263557
622581 568987
367324 248032
459083 627880
938761 20269
446947 929436
311684 761503
809440 776458
657576 496782
74007 620423
232413 616213
383233 389687
563747 183034
513040 504219
451628 886686
332069 534986
364899 822394
957276 829215
111102 830635
343166 999821
377347 314306
884663 709730
863276 506260
