629335 895169 525
462962 590466 470
689512 238847 509
604285 816371 509
188311 255823 443
416341 514879 470
694390 861544 525
185609 596599 470
714107 286270 509
134033 686288 509
614607 832520 509
604624 553738 434
970616 2509 525
336998 278894 389
162991 412786 449
716682 371136 509
32135 446602 449
349536 790087 509
841575 974115 507
871802 535673 525
365214 909328 525
503973 295420 449
424835 144978 449
937238 115292 525
368639 445543 449
717720 571218 509
346298 911876 525
64519 397321 443
295564 311810 371
68637 859790 525
840558 923023 476
515173 475566 470
112531 333889 443
812851 999983 525
798547 957777 525
438787 870850 525
546635 491614 470
223773 50184 386
330272 324539 384
599412 11483 470
586421 122859 470
455987 75520 449
452787 769887 509
340890 556202 470
258555 128034 443
490835 513548 470
993199 566431 525
313689 27941 443
546424 81933 470
605287 738590 509
543443 324061 470
872691 54261 525
151266 297929 443
770446 280853 509
684426 989962 525
920719 956866 507
670370 456252 509
442263 627581 509
611822 664721 509
957856 970991 458
404692 336628 441
215749 607778 470
281254 36486 443
503707 851907 525
388138 736905 509
386136 234266 441
833699 560278 509
999933 254876 525
377819 5665 443
6736 951108 525
376397 627157 509
209693 276973 443
258885 615995 470
900457 856453 445
362012 747601 509
855714 505510 525
980593 778368 525
624224 43103 470
159294 340463 443
928693 673959 525
263505 89139 443
779485 806840 468
946223 692997 525
444039 199296 449
139521 424814 449
897327 38006 525
93868 143175 375
284850 857673 525
33161 735410 509
370273 731900 509
617600 293106 470
584493 86051 470
931981 156583 525
861221 29819 525
994988 838939 507
899040 557835 525
689155 398497 509
301965 682216 509
359489 661526 509
567817 983113 525
29527 291440 443
850969 843989 419
584852 181237 470
915960 534697 525
639612 612081 509
563609 296765 470
519760 681263 509
219404 474345 449
547425 507098 470
246641 734940 509
95260 312730 443
65205 865526 525
909005 773534 525
374503 789438 509
237003 104133 443
213370 950196 525
198390 27 383
309451 494592 449
813741 14905 509
289360 94608 443
317117 50133 443
233433 173605 443
178075 98450 383
485405 406488 449
223112 152092 386
156883 338360 443
695576 841882 525
596393 53775 470
441962 382887 449
152341 818876 509
383200 990840 525
234368 510915 449
982424 571040 525
510161 904180 525
71644 407488 443
666865 265581 509
675239 426263 509
844116 825575 525
153336 46923 375
433061 460994 400
967478 185762 525
919575 567319 525
861300 697016 525
183599 36402 383
921681 500047 525
206697 32449 383
465151 459535 444
260902 716519 509
108062 253809 443
902804 70907 525
612216 140728 470
321269 577077 470
955463 318356 525
59840 654607 509
321010 935850 525
263380 85965 443
440861 71439 449
10671 910978 525
431243 562333 470
944540 573401 525
370036 565764 470
500883 4512 449
240296 678245 509
345269 513095 470
466481 177876 449
118279 137443 344
64015 605048 470
454942 230990 449
852230 713187 525
377102 83894 443
817961 151483 509
155129 498847 449
76050 579503 470
518287 453107 470
202218 665959 509
488822 877299 525
36210 234318 443
541620 712353 509
130897 144855 375
902551 580491 525
925553 692603 525
437658 969652 525
461249 309569 449
651641 574702 509
916039 495857 525
274657 159519 443
778407 648435 504
975444 829447 525
534202 717440 509
703274 77832 509
854317 869627 388
625181 299474 470
335472 548400 470
786849 592342 509
469266 452614 444
229379 370925 443
244009 609159 470
707524 128737 509
726982 150371 509
89134 847698 525
790337 135749 509
813727 410601 509
106198 185187 383
684187 972119 525
6928 140691 354
432886 400179 449
79501 895005 525
722317 215665 509
944272 811230 525
23987 742526 509
871180 673764 525
275598 528507 470
411144 692309 509
857919 46123 525
751598 322 509
567505 186704 470
417699 859731 525
427701 161694 449
257881 16256 443
378289 756874 509
406975 747284 509
30835 693675 509
512666 260407 470
632931 277528 509
637159 997703 525
804953 667977 504
953522 584501 525
854670 310999 525
530362 105482 470
926752 83799 525
399103 991906 525
370665 159886 443
452923 453686 369
667269 158495 509
934628 259595 525
480645 553032 470
464055 247163 449
509356 660322 509
40911 688340 509
836296 339222 509
323685 189067 443
776158 71471 509
996454 16382 525
717375 488552 509
498752 595439 470
22506 644496 509
554552 222412 470
322309 564810 470
193279 194917 329
515198 16279 470
389659 880318 525
661332 863053 525
600578 315064 470
703786 6015 509
525953 132991 470
276302 367525 441
645597 776798 504
956117 528847 525
426153 160027 449
990991 687714 525
589081 151356 470
84223 904772 525
689797 724444 504
722935 359819 509
32678 691307 509
116206 961961 525
766590 670645 504
863420 12192 525
957539 299090 525
437286 214232 449
