629335 895169
462962 590466
689512 238847
604285 816371
188311 255823
416341 514879
694390 861544
185609 596599
714107 286270
134033 686288
614607 832520
604624 553738
970616 2509
336998 278894
162991 412786
716682 371136
32135 446602
349536 790087
841575 974115
871802 535673
365214 909328
503973 295420
424835 144978
937238 115292
368639 445543
717720 571218
346298 911876
64519 397321
295564 311810
68637 859790
840558 923023
515173 475566
112531 333889
812851 999983
798547 957777
438787 870850
546635 491614
223773 50184
330272 324539
599412 11483
586421 122859
455987 75520
452787 769887
340890 556202
258555 128034
490835 513548
993199 566431
313689 27941
546424 81933
605287 738590
543443 324061
872691 54261
151266 297929
770446 280853
684426 989962
920719 956866
670370 456252
442263 627581
611822 664721
957856 970991
404692 336628
215749 607778
281254 36486
503707 851907
388138 736905
386136 234266
833699 560278
999933 254876
377819 5665
6736 951108
376397 627157
209693 276973
258885 615995
900457 856453
362012 747601
855714 505510
980593 778368
624224 43103
159294 340463
928693 673959
263505 89139
779485 806840
946223 692997
444039 199296
139521 424814
897327 38006
93868 143175
284850 857673
33161 735410
370273 731900
617600 293106
584493 86051
931981 156583
861221 29819
994988 838939
899040 557835
689155 398497
301965 682216
359489 661526
567817 983113
29527 291440
850969 843989
584852 181237
915960 534697
639612 612081
563609 296765
519760 681263
219404 474345
547425 507098
246641 734940
95260 312730
65205 865526
909005 773534
374503 789438
237003 104133
213370 950196
198390 27
309451 494592
813741 14905
289360 94608
317117 50133
233433 173605
178075 98450
485405 406488
223112 152092
156883 338360
695576 841882
596393 53775
441962 382887
152341 818876
383200 990840
234368 510915
982424 571040
510161 904180
71644 407488
666865 265581
675239 426263
844116 825575
153336 46923
433061 460994
967478 185762
919575 567319
861300 697016
183599 36402
921681 500047
206697 32449
465151 459535
260902 716519
108062 253809
902804 70907
612216 140728
321269 577077
955463 318356
59840 654607
321010 935850
263380 85965
440861 71439
10671 910978
431243 562333
944540 573401
370036 565764
500883 4512
240296 678245
345269 513095
466481 177876
118279 137443
64015 605048
454942 230990
852230 713187
377102 83894
817961 151483
155129 498847
76050 579503
518287 453107
202218 665959
488822 877299
36210 234318
541620 712353
130897 144855
902551 580491
925553 692603
437658 969652
461249 309569
651641 574702
916039 495857
274657 159519
778407 648435
975444 829447
534202 717440
703274 77832
854317 869627
625181 299474
335472 548400
786849 592342
469266 452614
229379 370925
244009 609159
707524 128737
726982 150371
89134 847698
790337 135749
813727 410601
106198 185187
684187 972119
6928 140691
432886 400179
79501 895005
722317 215665
944272 811230
23987 742526
871180 673764
275598 528507
411144 692309
857919 46123
751598 322
567505 186704
417699 859731
427701 161694
257881 16256
378289 756874
406975 747284
30835 693675
512666 260407
632931 277528
637159 997703
804953 667977
953522 584501
854670 310999
530362 105482
926752 83799
399103 991906
370665 159886
452923 453686
667269 158495
934628 259595
480645 553032
464055 247163
509356 660322
40911 688340
836296 339222
323685 189067
776158 71471
996454 16382
717375 488552
498752 595439
22506 644496
554552 222412
322309 564810
193279 194917
515198 16279
389659 880318
661332 863053
600578 315064
703786 6015
525953 132991
276302 367525
645597 776798
956117 528847
426153 160027
990991 687714
589081 151356
84223 904772
689797 724444
722935 359819
32678 691307
116206 961961
766590 670645
863420 12192
957539 299090
437286 214232
