891940 697805
862359 234376
26367 606307
995151 801575
825345 605847
506365 974326
986413 61873
226434 430525
898085 535727
333755 509408
263446 122120
92052 532178
53963 597662
199878 29184
41778 991807
548208 753765
910217 675320
571173 539622
229600 607783
104989 669944
412648 256099
925125 480212
336588 793016
455132 917752
162597 38649
199021 842943
427801 397838
547151 109332
847244 682474
446186 9685
480471 426243
99454 409506
18444 890917
2965 781477
220511 722978
169775 599267
728733 225107
233114 311148
447073 280849
249274 774588
411694 49639
852165 759129
517221 109272
333911 934335
997160 111519
631843 725683
96347 468257
508349 326658
2218 187396
837082 160516
861679 160578
360031 111738
824023 737413
905382 459751
508739 774342
439865 682239
380912 687702
910123 61571
167514 870883
434481 544219
404289 861418
684065 807330
737384 660131
624796 734424
962545 547597
507634 29136
552078 830906
518955 418384
557831 171471
104633 124032
94774 24513
455041 875854
118314 307239
598263 13126
375103 973669
451808 532510
155467 798452
443051 590492
339112 844688
674664 304540
919728 662910
733423 979969
701064 582416
218762 738856
566200 781544
756133 440666
552912 965321
45952 658423
324941 430490
360795 841684
555753 664437
246370 203597
298167 235028
344671 81789
769518 909621
221482 182934
300930 151651
994034 60223
951328 282890
684852 140321
17948 943380
425764 812403
863824 425672
119461 28125
601595 137060
844999 902536
3427 821888
573860 507441
212618 929322
833914 840235
865091 693511
176997 598228
416384 276403
418452 329986
672858 311673
36470 679523
958595 94745
383625 890104
741613 306225
163530 428717
483351 923624
967536 161917
465080 441275
492537 735854
120532 480440
986064 761157
732717 118007
294847 563370
558657 443812
821161 343143
667704 176658
710977 782580
426517 244673
730693 862125
591690 269283
684825 989564
846906 589916
367391 214899
743900 562824
250120 561027
762823 47038
911175 770099
766391 767683
419481 18266
343430 774642
146115 107161
835524 307095
56707 435044
304514 541616
750839 269421
350614 847604
559586 80053
531344 949266
690888 801254
503844 13911
593586 25575
81954 845082
872022 713210
836916 818275
154368 670002
954892 493533
711641 787073
889915 774201
766400 719016
509118 994749
609439 320766
942093 300968
512738 528336
940895 43726
812451 917119
376860 316447
813969 233093
748421 707961
229214 612881
262435 514381
738828 71468
914485 49903
34592 937963
499203 855890
341352 536628
399893 430638
335133 508678
102643 741581
576932 663822
417769 897852
110193 12550
417599 419001
572451 484120
879057 676789
81519 565866
856896 631421
459535 445460
838365 71355
508999 301670
290922 874793
935459 159889
428059 49281
504720 234897
317455 150506
370669 467456
