124 28223
5156 89113
60475 40325
87702 64465
63453 5311
29824 43886
64126 81283
84562 64158
65404 72460
32915 27411
55541 64659
11139 80396
85558 89572
72511 54808
7972 58821
87043 24244
29709 14447
61123 8551
79367 183
11846 58825
19062 52820
50454 48021
28530 83188
65647 45015
72425 3933
68592 14913
11660 37965
43888 86082
50890 7217
66037 26398
56994 65213
79659 69432
77982 3054
3236 57134
25958 67348
30167 21433
69453 51371
50910 86972
41986 7983
18267 26557
47821 30762
75078 3210
89292 59481
73049 28966
61715 56533
31745 55438
34869 35060
38113 27755
1240 29202
6549 47701
69133 33549
84920 43068
40039 54938
62920 45829
78737 88377
29138 87538
748 36558
12390 14216
49533 39
62923 85438
57227 27599
69011 11019
45125 2095
31296 17123
71175 46365
79913 44197
3616 50308
15245 74832
30661 43654
42030 84516
82053 19397
62306 77520
8087 89152
5542 74695
76485 63971
7921 68464
79482 50063
52158 76931
10406 34607
80971 89805
50353 81580
48239 77235
62067 53968
13974 63483
64350 2727
28475 62355
49874 62755
61906 781
81827 64312
38282 67448
45911 74663
34726 46203
33133 41745
82703 3235
9391 49890
41470 80025
67259 59744
30063 89708
69543 39325
48403 44036
16391 43892
22998 83230
362 72616
46928 84904
62351 82188
73203 85209
47763 24613
72709 24280
27514 87248
47137 65411
55435 43256
12999 88606
4666 39046
84722 49414
3449 74208
34451 49477
42706 19839
2455 57449
58704 43067
41606 55734
50942 37406
62018 31160
55439 8705
12304 44727
26489 89304
42560 59440
64398 88276
37321 61910
21323 69063
59622 38394
87870 24772
50962 10424
74224 46927
6345 59768
25501 42927
80332 54303
85462 82795
7851 58702
19780 57253
56556 20154
79593 46268
50895 15467
77377 53990
39404 88215
42961 15051
46174 15377
25801 40830
87757 7136
73255 16376
59303 4101
64755 15108
7902 55986
31039 60217
27469 15752
35905 50818
13438 376
15843 31849
2191 64332
68899 9571
24621 41594
63323 21859
62688 70795
84282 89123
15498 66796
77249 67536
82643 81152
53490 52003
28571 6896
22647 84528
45346 56039
62767 64903
6752 58783
39466 78609
88179 15294
63239 18364
40222 29151
9945 36561
42035 19262
86057 10578
78114 63885
55036 79657
48012 77108
84004 24877
19405 76582
42621 23002
4257 71102
46236 21739
10347 17360
32653 85701
14065 14877
44027 5891
42452 60638
79899 60324
70901 838
64722 75956
71964 65366
52474 36110
60986 29975
16557 52829
82182 86742
67843 65529
87267 86438
20149 30430
26131 13965
28841 52801
65044 46547
17184 79219
49542 23847
24684 7083
89390 36795
12160 89406
41867 71353
17680 70985
40165 12852
9594 34236
9764 32347
35136 83788
24218 13382
27346 55285
24437 56700
13246 62538
51756 89480
23326 30429
43863 17650
54444 48010
53767 43252
30957 72955
53940 5633
24836 48636
82871 4104
42802 34429
34569 8986
28719 77938
49574 58786
25485 56064
34953 74010
79842 45082
75510 3060
20709 13167
67528 29373
78976 81504
64459 37646
43278 19932
68567 28398
38853 68114
18894 61437
76774 81655
75944 59814
28599 15492
77907 35517
25878 60435
