327583 183033 443
442694 838447 525
924290 300146 525
760294 772951 468
385440 574177 470
533362 711315 509
865492 880722 432
154263 377762 443
567656 106801 470
826103 225874 509
326637 968416 525
296244 225761 443
276938 754975 509
925411 664255 525
54677 973763 525
647263 770001 504
439152 621471 470
483992 864304 525
546305 193845 470
342142 426353 449
741758 728698 424
598737 538097 452
96211 940991 525
154957 264249 443
867634 660866 525
317644 938672 525
466811 235136 449
479188 318657 449
306039 386021 441
783010 476772 509
471446 879912 525
596809 976411 525
781307 107453 509
374644 660039 509
123970 133858 344
459898 691489 509
258894 313076 407
525447 713393 509
917638 574522 525
551263 620788 447
917701 498785 525
526201 512448 439
352373 383379 423
367353 565967 470
969267 925088 507
395600 904156 525
893790 743752 525
139146 526911 470
895421 675154 525
821969 366921 509
270673 619701 470
647396 529301 509
32138 738964 509
288345 750665 509
745706 801091 468
270825 102496 443
846442 919373 476
618612 330004 470
670622 676729 385
197085 854310 525
413541 263833 449
314487 223103 443
802088 177521 509
204874 580199 470
907747 762987 525
632121 592439 509
136368 673716 509
261809 650212 509
953842 465860 525
160299 327632 443
978102 320506 525
698633 658601 442
866902 958064 507
984042 105918 525
122045 457415 449
237507 398154 441
892644 920033 476
125633 744706 509
104092 785651 509
366711 653714 509
561994 353248 470
123646 590478 470
583650 285964 470
255436 640116 509
909341 191347 525
637784 175993 509
319449 41691 443
116967 697529 509
929263 764436 525
760269 506810 509
90878 358405 443
953814 592408 525
723019 620718 509
816671 471262 509
781368 613043 509
567011 551040 421
219479 743742 509
727623 620563 509
36576 35193 324
582673 542524 452
839355 332467 525
863305 525987 525
21210 185217 383
603290 80403 470
791421 338910 509
701618 708995 504
441360 417798 418
944923 225994 525
816685 82752 509
607022 513306 452
825161 860451 525
419829 140067 449
578049 989291 525
837109 399176 509
513951 643678 509
213950 823301 509
398631 151596 443
466953 234226 449
798122 108901 509
993078 261329 525
963657 468216 525
586740 669590 509
37624 77188 351
341147 367816 441
390813 938213 525
103457 703168 509
834073 240834 509
686126 401192 509
609232 944712 525
960391 882952 507
396551 648325 509
656782 781381 504
918608 235028 525
470032 272537 449
623115 426196 470
887176 103293 525
93004 439543 449
816632 110550 509
718615 928379 525
630605 797695 504
404800 705541 509
133762 409642 443
592660 61624 470
105720 118082 354
49424 119230 354
205559 282641 443
676543 637929 442
57832 527498 470
708787 255870 509
550210 365359 470
432246 298289 449
606619 851756 525
917901 842916 476
123833 186685 383
460559 649700 509
782726 262285 509
932297 593387 525
716894 513811 509
542076 112316 470
784089 25422 509
728899 389972 509
662812 242597 509
217861 176436 386
716313 909356 525
499917 145522 449
294197 561108 470
286023 798385 509
57123 470706 449
31914 102985 351
322386 23036 443
515694 857627 525
24996 100360 351
523994 496403 470
955739 443171 525
975017 487970 525
108635 381213 443
141686 916505 525
308255 330865 384
327980 110608 443
535018 160466 470
492298 421460 444
275599 614899 470
662275 276153 509
77157 888994 525
855445 109620 525
540326 653299 509
676128 714910 504
607106 234006 470
372685 258329 441
583525 993329 525
535214 715083 509
26903 697530 509
106040 693127 509
348711 769561 509
664906 30821 509
120361 305122 443
222683 672554 509
488191 992508 525
453827 98361 449
98418 894600 525
17668 973843 525
586024 50124 470
30253 23615 308
212593 123181 383
301113 76520 443
106930 909646 525
190032 724164 509
684217 273460 509
847889 844951 419
623630 89262 470
197523 493895 449
834656 507235 509
700464 736158 504
327983 249177 407
411186 140086 449
604622 550175 434
722879 607746 509
10155 780607 509
814020 740009 468
727200 120107 509
134083 896533 525
141604 886000 525
734943 479756 509
208192 135854 383
229434 743038 509
39986 360743 443
811769 748246 468
359767 736314 509
502426 549054 470
108157 251999 443
408772 585387 470
394040 352002 436
834139 960683 525
935894 650354 525
472157 751735 509
669173 37007 509
787170 6402 509
458794 830669 509
553501 81096 470
951484 880972 507
706252 100643 509
307253 604142 470
775994 629282 504
478587 681270 509
956088 93567 525
264520 828777 509
57354 623269 470
254491 213063 443
126966 938338 525
235706 84381 443
787094 132552 509
320984 338733 384
371137 761809 509
419295 20011 449
292745 357308 441
560739 503324 470
