188467 458922
802653 732491
908882 7682
237034 73950
35325 367800
833621 615396
988706 992519
276301 609552
594305 751688
183740 311831
42848 499637
717846 894563
35960 9631
845370 751487
491394 842559
979701 921965
178169 672645
347053 561437
492198 594543
68636 297802
444853 835956
330166 769096
970909 466671
351646 442832
878872 158688
564502 966409
63795 128328
376718 766846
596387 102390
705683 594839
193309 797928
549751 374604
620312 895423
428929 423490
656380 952348
925787 422697
166255 694692
867701 991437
363064 92741
817638 451769
49021 458995
682369 141138
228257 663779
118373 748558
837054 910930
437576 55339
429941 623984
137553 897507
392441 565961
559121 32875
929897 326480
773937 160490
764826 398347
574510 81811
334033 773910
706398 698729
359868 305877
29381 49494
551187 796610
904170 151403
693467 307179
957010 571210
618834 975100
827012 22230
556108 764649
276156 263339
738131 244457
338851 338879
19179 498249
28538 431236
9034 122819
157385 551623
222815 973989
582309 241566
436745 158586
380499 522913
955020 817729
618549 870745
63336 817416
33118 118586
223572 509568
36674 511191
102908 65797
557294 740478
318201 672645
677313 732142
954455 102324
628311 343687
114356 682838
178957 601654
512593 812640
777617 372334
334243 684704
178591 72319
259914 388724
152422 518483
528049 876774
189070 246465
398538 431127
946413 784172
906061 683254
459083 439395
263128 47571
482112 586851
341556 495797
631774 832886
257339 572024
249843 446760
76687 593690
219798 509273
861379 167820
107298 933092
162695 467960
232822 43883
732903 720469
359327 82296
421000 558191
546155 471501
411074 874126
224546 923414
238551 423999
172186 644833
347501 48328
108826 803020
246075 767928
313162 770592
595650 983061
77271 495645
746507 253741
483131 787843
46123 171488
502169 652960
694101 696762
608785 633592
89838 930883
531349 706283
569396 888827
564679 571798
177398 186601
164417 983035
795882 749390
465299 380782
482258 411316
163781 224720
480570 457359
535091 247312
515200 63484
140110 127725
719660 610147
93282 616618
124630 582333
556696 463004
70895 498953
621857 190719
840246 462754
670281 642250
385514 394363
483507 722464
953161 695357
926546 580202
566836 85260
354018 375834
733391 349653
238012 202539
241850 210268
436012 886687
568375 57183
445745 159472
310428 73524
789188 216891
848168 496406
307726 527477
964539 736461
706200 146414
922529 715196
89075 2481
420448 203790
160595 179970
58491 986498
774342 314774
322731 12969
108498 470542
477594 459588
343202 521465
115092 167187
391020 938919
638736 150788
435008 628352
361448 324756
84199 457535
642699 830824
682630 813557
367965 260389
435383 164186
425315 499637
610187 396038
67919 495955
729548 484859
220952 780563
396444 127556
123304 51571
801336 567798
909157 774612
136221 324891
483660 78890
378838 327332
201688 126018
943466 579971
94731 864668
370547 392548
386005 420484
465927 828276
167026 117293
33287 582840
384024 438190
698881 529042
399474 345791
612174 451363
616430 165423
280629 756159
480000 374263
850556 87489
642534 881835
652214 956276
207410 117627
726691 262010
994436 945079
981007 381681
435054 782179
89699 450848
100063 395095
550500 947704
395341 324802
784617 992050
819531 231915
682005 808058
348993 548636
208394 126087
184129 661538
942898 276118
842518 86179
30543 238752
701936 847901
316350 104265
680116 195429
300825 57950
793115 131866
49887 452085
504413 477929
692798 528725
640437 910973
