740757 525600 509
859880 49240 525
252388 205868 443
500274 845345 525
7600 408583 443
855529 92673 525
151423 576683 470
509747 357010 449
833704 21527 509
409420 943843 525
654985 886400 525
463505 224520 449
313058 132764 443
521937 887751 525
460052 604964 470
941882 346610 525
740178 133301 509
100480 164176 383
204261 84458 383
105083 537678 470
617003 16335 470
670652 339568 509
222511 724197 509
353633 194504 443
745289 301645 509
894600 390903 525
176427 742025 509
218047 970760 525
481104 479924 413
501570 984319 525
768592 11552 509
72746 85308 351
487570 37388 449
755609 199760 509
893870 214207 525
2707 361493 443
43179 459604 449
842647 57694 525
154112 124396 375
486470 971139 525
515854 43141 470
963306 715941 525
235551 83193 443
459736 267617 449
377953 167391 443
974571 931623 507
712293 775181 468
250416 979132 525
642232 640908 416
363752 767604 509
282923 168175 443
717995 505924 509
241685 679578 509
816752 977799 525
743062 744266 318
602922 157977 470
577838 152473 470
689225 793452 504
928883 374259 525
496332 865818 525
392434 285930 441
143939 876075 525
515655 234321 470
606940 767958 509
31139 209020 383
540656 459316 470
748128 442990 509
900358 12368 525
155544 754267 509
544340 715104 509
138753 813599 509
76743 535917 470
378751 587817 470
68688 302274 443
836907 481405 509
295631 466140 449
68070 523456 470
335869 840546 525
759281 153467 509
25149 330127 443
283821 392531 441
778706 238653 509
478701 637185 509
267572 804799 509
821423 834530 419
163843 855056 525
311816 960985 525
734989 271397 509
174618 630721 509
406101 779894 509
231408 445242 449
556019 74635 470
975915 506700 525
388826 280981 441
818909 488077 509
453171 71809 449
293556 857344 525
377715 259442 441
819394 612883 509
94875 712821 509
823566 190800 509
436398 808886 509
424511 755783 509
440258 777340 509
333068 277312 389
596068 652465 509
349971 706614 509
972478 974658 383
582112 233894 470
169050 295635 443
881143 158598 525
434122 661840 509
392044 770373 509
430091 440945 400
150149 723326 509
503045 370476 449
87580 253142 443
431451 877028 525
691186 780318 504
865782 680989 525
532842 170255 470
631164 216432 509
761654 615660 509
33318 546099 470
497871 534526 470
193333 44124 383
576443 222299 470
925543 490714 525
172778 81503 383
884373 123241 525
576093 733494 509
912245 208092 525
941167 896576 507
552649 456819 470
642858 352320 509
507491 950309 525
720149 832 509
905206 734768 525
461353 84466 449
234384 524745 470
999042 498348 525
519738 286155 470
97545 912821 525
518150 36151 470
925813 998814 507
393434 75251 443
330690 694115 509
637170 103115 509
218497 354541 443
793511 824521 468
242625 332108 407
879143 575389 525
35047 431386 449
41206 978685 525
414542 789718 509
299172 565893 470
94742 808500 509
319684 241320 407
464298 656099 509
676135 104949 509
176472 701766 509
842763 860416 419
786269 584003 509
312688 694881 509
889139 634801 525
832281 458008 509
62599 897338 525
324200 959557 525
730340 896622 525
33007 379752 443
561064 405801 470
133854 777548 509
445790 665166 509
150291 635795 509
561524 606813 434
479087 178588 449
221668 299554 443
142837 859241 525
412821 861566 525
849959 913517 476
528435 766268 509
320485 443560 449
617270 729996 509
777176 252352 509
385754 431768 449
67270 19840 340
992911 853978 507
195419 153088 383
110721 663893 509
53899 256568 443
441608 306908 449
69204 50626 340
582564 423754 470
637674 662479 429
134624 526518 470
489293 428637 444
474499 914919 525
29307 575986 470
755687 10386 509
856768 725673 525
51615 602597 470
350192 768609 509
714252 150568 509
376648 764359 509
350774 338750 441
432845 645362 509
716053 213276 509
659284 324890 509
358791 946589 525
62884 138521 354
635106 31905 509
856402 296064 525
752825 761573 424
498679 130515 449
372823 806578 509
726600 672777 504
620463 880698 525
819730 246592 509
137130 368231 443
875485 625710 525
737879 627885 504
817652 669426 504
301660 90816 443
5117 628228 509
821803 714331 468
233131 788945 509
566070 485616 470
440944 672478 509
968713 795378 525
810290 619389 509
564911 80141 470
189939 417122 449
38928 721692 509
334570 419000 449
731719 335975 509
668195 123368 509
491420 927111 525
17046 338817 443
963758 702142 525
901938 774019 525
433037 84222 449
376614 797131 509
212164 413545 449
457191 730383 509
300063 640069 509
375522 320727 441
235431 194278 443
302797 595291 470
690230 219416 509
895631 369035 525
914606 797877 525
418410 85916 449
252692 73776 443
806365 389651 509
623530 547683 447
925174 807293 525
