209824 102909
171650 160293
959174 443362
530635 807463
919448 844697
848735 954894
506678 599919
962981 499212
970423 198724
637637 433308
167554 10882
192237 887582
307932 248736
676216 469911
647772 637009
853654 149613
21536 431303
347383 500574
866241 953682
656766 488356
968180 413317
95339 39975
657641 286628
144989 919017
508478 567866
247127 127393
257931 654150
202350 825401
695719 203943
555799 236703
888019 145681
84393 386397
490834 984425
976200 886965
364718 918744
234033 926939
101295 151831
752772 137121
315931 951830
252223 15272
136926 95336
852922 254506
252428 888507
187239 350387
318727 827130
587394 247227
401499 566408
136721 98427
879465 825344
862148 56803
606831 309105
537259 348116
338863 389663
33275 477260
752022 312746
53072 865583
181740 614632
513726 56251
394984 273850
67515 249396
495586 23592
913776 219677
521679 555886
444859 884679
874595 113568
374243 549148
166629 804227
7328 622712
521851 205437
31859 391479
370234 210572
241335 121990
423110 355977
65885 213010
118326 513183
343735 133907
201172 258104
649162 874986
866613 940992
744595 181823
736080 721095
494255 467096
505601 343173
466964 868525
990092 809306
476202 800218
466541 935025
647737 801846
419434 791294
68900 204944
19509 23193
646915 776730
451204 731670
945893 573399
110514 594956
619790 465322
778977 146099
629963 941579
818678 192500
801936 933632
482679 750334
739710 254859
104126 497073
100761 240549
426092 453548
797398 995549
732987 312206
154087 189395
870515 970732
91152 154513
232892 705816
438523 754296
367795 483096
465446 188645
30654 101707
85529 48237
191015 28304
841261 792939
444988 438366
994090 240862
427355 551849
468878 693120
61125 145249
36094 539022
378781 877315
958761 668927
656433 4834
693110 694211
931567 484353
317774 287264
630783 502819
71943 747897
840186 484480
832206 698989
969282 215681
313495 292116
933718 59208
238057 530595
729624 907798
3167 768332
193950 944388
518795 777846
976823 935559
619222 867027
680584 655417
861134 443430
269490 727191
473674 318831
488924 248480
770833 833981
725343 780119
268724 276334
999928 957612
808397 676180
234123 103529
825925 416290
410119 635460
874226 530346
735799 566063
74764 668607
164274 651135
195533 693928
610147 101094
759975 76986
730479 307807
351856 695797
515657 495107
52512 318061
787158 275683
692776 553697
945027 792812
513439 195113
304619 340851
206399 361577
861700 91029
928403 428097
637740 242113
607077 595149
62282 395697
914675 934649
786088 79103
780889 335676
446806 573964
545492 462466
515273 158331
309103 238354
657999 67877
695353 835941
306000 461005
543277 180906
592039 972517
926414 523595
288909 956271
33943 156220
728872 831753
178694 404553
433749 834784
888806 607568
768756 778996
33378 318539
533360 77086
463191 909861
27643 824689
993827 718840
11000 279267
189398 500114
896159 664788
250859 290127
415057 388199
626302 392835
769173 158391
684098 345496
201403 819072
806215 357513
937218 798005
844039 515551
957787 455671
574600 60639
611446 659575
138223 717087
54371 594938
225418 424480
364400 74490
346395 607873
560105 120942
156134 426530
417917 939143
747320 32527
124573 361018
305965 412711
906370 213541
226852 980570
757008 160431
621352 788996
531350 387056
533369 688862
862174 802133
384192 955934
20120 439020
55206 621423
283265 531847
673811 955936
606237 491764
156876 62083
688933 564959
969030 775153
646608 568345
680008 904120
653785 281571
98981 796627
384759 147049
424353 981230
684510 247166
523816 929468
469809 840535
375760 215234
47261 124359
442744 677111
901487 972806
295634 445171
641474 67604
419921 513325
155510 315398
865342 698240
901057 910256
100251 513870
147488 417395
565556 602629
487596 498955
55346 659669
869915 535505
69596 733242
832277 412092
833658 143821
507476 528785
810450 611414
730229 447636
145386 121279
188949 415541
924193 801520
990824 939148
432302 797069
309928 138396
335046 803827
919894 952234
258495 424261
697268 48571
353657 15291
287947 835037
980392 245155
