596613 403509
769909 230887
784871 621761
223993 548033
584842 963561
65449 352982
671404 168154
170423 110763
309898 629664
307163 949772
935405 476589
793125 303338
82362 312134
626934 366790
390165 652089
546326 464927
46347 744525
406305 234008
835117 469970
208934 286507
606045 57977
216460 846043
178093 969932
496650 109126
233220 395112
145659 584376
826185 121440
629815 178217
478392 783868
664435 315140
73572 320005
368972 410090
668847 661979
432035 410970
578788 959302
776588 292096
595119 467277
517686 424064
237349 980477
770796 900132
716859 858128
338496 374021
606243 583453
125217 762780
981073 750329
302781 920374
885958 560459
350466 518388
975930 407260
163213 779612
803676 449624
642903 352644
926373 217005
695798 153382
365216 348221
691779 467611
851257 113143
424772 678329
463059 399952
493847 978842
698666 58264
783582 509926
530216 406706
878521 710523
548982 332207
973794 700955
178238 789714
539576 938943
858408 519131
527050 24084
805383 503644
996938 529063
392867 717263
738617 441580
47744 488806
414187 178886
120186 483509
13517 650353
952877 861344
214063 775761
991845 9390
764925 958669
339535 285577
968952 367746
761122 806050
193897 731246
145069 14786
367997 362558
3734 19227
706562 966756
951765 822071
741105 620489
851932 858498
401328 614907
410742 244536
319547 438922
186403 957354
56342 489335
860080 276235
214707 265259
303333 70830
327293 208768
532418 24315
33983 87174
478190 525108
438164 793131
401863 264364
532570 619659
470655 683204
35957 193303
836582 427158
680615 478077
663703 895704
66583 236583
524706 91091
333373 765852
227583 258118
861078 98845
404972 807818
499205 784202
687460 718979
59233 614422
138762 995168
775435 17580
372705 718680
951970 886884
209793 952864
66443 332394
11524 603505
477571 634409
539580 988233
168504 295299
586253 120190
78512 3001
464146 629567
257519 438567
350675 593855
591775 320954
197107 223814
870798 297786
812676 111299
31885 321519
541669 766544
911133 997293
958644 360184
27238 341956
955452 943088
486548 126921
807770 483062
814344 581999
896656 525183
847777 836625
895098 753869
739179 73342
173022 380786
220624 187103
85210 696799
826968 226458
966266 296437
502005 566329
1750 211351
203655 407553
186280 830268
444123 190324
355501 201559
492298 391504
857126 156995
194971 61990
580617 15243
751931 585908
280469 633689
117358 422013
289779 138183
814291 3957
55758 243744
508981 289735
902740 602423
695811 775774
487086 859545
27562 327064
545264 416261
146362 721703
648583 691913
254994 786870
575088 33755
554865 501656
515898 907548
833830 264639
964401 877604
525397 23962
601756 480118
850863 733008
589634 299517
383709 971085
41624 274367
704378 93129
539868 322361
475952 185676
352274 520479
338098 379701
686830 93519
122523 898330
362551 785212
422029 816472
393083 211774
465901 194293
346475 636777
731206 40359
757985 742815
890185 330105
142057 418334
521919 446935
244105 307746
848285 145391
