1 10
100 200
201 210
900 1000
808 250
74 659
931 273
545 879
924 710
441 166
493 43
988 504
328 730
841 613
304 170
710 158
561 934
100 279
817 336
98 827
513 268
811 634
980 150
580 822
968 673
394 337
486 746
229 92
195 358
2 154
709 945
669 491
125 197
531 904
723 667
550 25
802 854
978 409
229 934
299 982
636 14
866 815
64 537
426 670
116 95
630 502
518 196
106 405
452 299
189 124
506 883
753 567
717 338
439 145
502 898
872 829
138 359
178 398
295 905
610 232
746 176
636 299
143 400
969 413
261 558
595 9
396 969
114 531
7 963
943 366
83 853
768 822
696 713
672 902
591 832
739 58
617 791
641 680
336 7
973 99
96 320
455 224
290 761
906 127
124 507
814 771
239 95
221 845
367 535
227 395
364 739
845 591
551 160
624 948
386 218
273 540
248 386
497 886
624 421
145 969
736 916
626 535
43 12
680 153
245 296
819 397
693 816
992 34
670 398
554 548
826 211
663 212
809 378
762 626
336 869
996 777
768 440
875 332
557 302
873 561
95 985
756 790
408 16
194 770
681 456
856 507
964 503
677 109
250 332
845 639
809 998
652 850
204 732
532 15
420 776
10 181
930 224
55 261
738 546
318 526
201 257
565 598
649 705
551 151
977 413
555 798
505 382
749 66
379 700
210 130
554 484
448 608
774 323
306 177
54 225
631 367
401 445
371 286
17 899
156 134
558 577
179 267
358 712
879 615
820 738
134 592
721 763
634 198
32 589
590 874
878 305
359 201
255 961
916 948
481 731
956 547
108 239
1 927
36 858
114 115
594 361
355 419
358 586
730 16
564 103
918 644
420 968
748 270
396 304
474 104
749 386
659 460
407 931
825 133
974 604
898 921
951 232
481 204
901 521
534 259
4 677
951 935
781 880
833 575
550 543
250 772
311 880
984 971
41 724
651 972
230 319
747 300
231 622
777 125
245 959
697 772
65 561
599 752
941 504
