1 10
100 200
201 210
900 1000
10 9
99 101
100 100
1 2
2 1
9999 9998
1 999
2 999
999 2
555 444
333 666
3456 9875
123 321
1 9999
9999 1
1919 9191
40 45
75 125
500 600
5000 6000
12 11
1 1
3333 3332
14 99
17 38
38 17
1337 7331
8008 135
13 31
262 262
9000 9950
9000 9500
8001 9000
100 150
151 200
400 450
50 540
620 380
1319 985
222 223
15 8043
38 34
245 957
900 901
106 107
37 73
1 2
3 5
6 8
10 15
20 25
30 35
40 45
50 55
60 65
70 75
80 85
90 95
100 105
110 115
120 125
130 135
140 145
150 155
160 165
170 175
180 185
190 195
200 205
210 215
220 225
230 235
240 245
250 255
260 265
270 275
280 285
290 295
300 305
310 315
320 325
330 335
340 345
350 355
360 365
370 375
380 385
390 395
400 405
410 415
420 425
430 435
440 445
450 455
460 465
470 475
1 1000
1001 2000
2001 3000
3001 4000
4001 5000
5001 6000
6001 7000
7001 8000
8001 9000
9001 9999
1000 1001
1999 2000
1999 2001
3999 2999
3999 4001
4999 8999
3999 9000
4999 9001
1 1000
1001 2000
2001 3000
3001 4000
4001 5000
5001 6000
6001 7000
7001 8000
8001 9000
9001 10000
1 500
501 1000
1001 1500
1501 2000
2001 2500
2501 3000
3001 3500
3501 4000
4001 4500
4501 5000
5001 5500
5501 6000
6001 6500
6501 7000
7001 7500
7501 8000
8001 8500
8501 9000
9001 9500
9501 10000
10001 11000
11001 12000
12001 13000
13001 14000
14001 15000
15001 16000
16001 17000
17001 18000
18001 19000
19001 20000
20001 21000
21001 22000
22001 23000
23001 24000
24001 25000
25001 26000
26001 27000
27001 28000
28001 29000
29001 30000
30001 31000
31001 32000
32001 33000
33001 34000
34001 35000
35001 36000
36001 37000
37001 38000
38001 39000
39001 40000
40001 41000
41001 42000
42001 43000
43001 44000
44001 45000
45001 46000
46001 47000
47001 48000
48001 49000
49001 50000
50001 51000
51001 52000
52001 53000
53001 54000
54001 55000
55001 56000
56001 57000
57001 58000
58001 59000
59001 60000
60001 61000
61001 62000
62001 63000
63001 64000
64001 65000
65001 66000
66001 67000
67001 68000
68001 69000
69001 70000
70001 71000
71001 72000
72001 73000
73001 74000
74001 75000
75001 76000
76001 77000
77001 78000
78001 79000
79001 80000
80001 81000
81001 82000
82001 83000
83001 84000
84001 85000
85001 86000
86001 87000
87001 88000
88001 89000
89001 90000
90001 91000
91001 92000
92001 93000
93001 94000
94001 95000
95001 96000
96001 97000
97001 98000
98001 99000
99001 100000
100001 150000
150001 200000
200001 250000
250001 300000
300001 350000
350001 400000
400001 450000
450001 500000
500001 550000
550001 600000
600001 650000
650001 700000
700001 750000
750001 800000
800001 850000
850001 900000
900001 950000
950001 999999
340000 450000
890000 2200
500000 750000
