1 10 20
100 200 125
201 210 89
900 1000 174
10 9 20
99 101 26
100 100 26
1 2 2
2 1 2
9999 9998 92
1 999 179
2 999 179
999 2 179
555 444 142
333 666 145
3456 9875 262
123 321 131
1 9999 262
9999 1 262
1919 9191 262
40 45 110
75 125 119
500 600 137
5000 6000 236
12 11 15
1 1 1
3333 3332 31
14 99 119
17 38 112
38 17 112
1337 7331 262
8008 135 262
13 31 112
262 262 30
9000 9950 260
9000 9500 260
8001 9000 247
100 150 122
151 200 125
400 450 134
50 540 144
620 380 142
1319 985 182
222 223 71
15 8043 262
38 34 22
245 957 179
900 901 55
106 107 101
37 73 116
1 2 2
3 5 8
6 8 17
10 15 18
20 25 24
30 35 107
40 45 110
50 55 113
60 65 108
70 75 116
80 85 111
90 95 106
100 105 88
110 115 114
120 125 109
130 135 42
140 145 117
150 155 86
160 165 112
170 175 125
180 185 94
190 195 120
200 205 40
210 215 102
220 225 115
230 235 128
240 245 97
250 255 110
260 265 123
270 275 92
280 285 105
290 295 118
300 305 43
310 315 131
320 325 100
330 335 113
340 345 126
350 355 126
360 365 95
370 375 46
380 385 108
390 395 121
400 405 28
410 415 134
420 425 59
430 435 116
440 445 116
450 455 54
460 465 129
470 475 129
1 1000 179
1001 2000 182
2001 3000 217
3001 4000 238
4001 5000 215
5001 6000 236
6001 7000 262
7001 8000 252
8001 9000 247
9001 9999 260
1000 1001 143
1999 2000 113
1999 2001 113
3999 2999 238
3999 4001 189
4999 8999 262
3999 9000 262
4999 9001 262
1 1000 179
1001 2000 182
2001 3000 217
3001 4000 238
4001 5000 215
5001 6000 236
6001 7000 262
7001 8000 252
8001 9000 247
9001 10000 260
1 500 144
501 1000 179
1001 1500 182
1501 2000 180
2001 2500 209
2501 3000 217
3001 3500 199
3501 4000 238
4001 4500 215
4501 5000 210
5001 5500 192
5501 6000 236
6001 6500 262
6501 7000 257
7001 7500 239
7501 8000 252
8001 8500 234
8501 9000 247
9001 9500 260
9501 10000 242
10001 11000 268
11001 12000 250
12001 13000 263
13001 14000 276
14001 15000 271
15001 16000 271
16001 17000 266
17001 18000 279
18001 19000 261
19001 20000 274
20001 21000 256
21001 22000 269
22001 23000 269
23001 24000 282
24001 25000 264
25001 26000 264
26001 27000 308
27001 28000 259
28001 29000 259
29001 30000 272
30001 31000 272
31001 32000 285
32001 33000 267
33001 34000 267
34001 35000 311
35001 36000 324
36001 37000 249
37001 38000 306
38001 39000 244
39001 40000 306
40001 41000 288
41001 42000 257
42001 43000 288
43001 44000 270
44001 45000 270
45001 46000 314
46001 47000 283
47001 48000 314
48001 49000 296
49001 50000 296
50001 51000 278
51001 52000 309
52001 53000 340
53001 54000 322
54001 55000 260
55001 56000 260
56001 57000 322
57001 58000 304
58001 59000 273
59001 60000 304
60001 61000 335
61001 62000 317
62001 63000 286
63001 64000 330
64001 65000 299
65001 66000 268
66001 67000 268
67001 68000 312
68001 69000 312
69001 70000 299
70001 71000 312
71001 72000 325
72001 73000 263
73001 74000 294
74001 75000 325
75001 76000 307
76001 77000 307
77001 78000 351
78001 79000 338
79001 80000 307
80001 81000 320
81001 82000 320
82001 83000 320
83001 84000 289
84001 85000 320
85001 86000 302
86001 87000 302
87001 88000 333
88001 89000 333
89001 90000 315
90001 91000 315
91001 92000 333
92001 93000 315
93001 94000 284
94001 95000 315
95001 96000 328
96001 97000 297
97001 98000 297
98001 99000 284
99001 100000 328
100001 150000 375
150001 200000 383
200001 250000 443
250001 300000 407
300001 350000 441
350001 400000 436
400001 450000 449
450001 500000 444
500001 550000 470
550001 600000 434
600001 650000 509
650001 700000 442
700001 750000 504
750001 800000 468
800001 850000 525
850001 900000 445
900001 950000 507
950001 999999 458
340000 450000 449
890000 2200 525
500000 750000 509
