569828 249657
673890 526436
669305 773537
509819 429669
533397 682429
822522 837738
182418 914569
417088 242322
899663 167522
93141 381228
970017 919105
254192 264145
962572 524017
297229 285882
72229 814934
169526 193348
13428 624563
769522 692911
994555 931570
28873 830993
237082 902829
993945 300674
151402 744727
768220 113459
201195 433460
441798 597653
211102 703192
341876 121080
296092 179231
226937 528102
696772 380522
87098 996329
642257 208591
290302 907293
379252 167426
921474 458893
537035 690172
597549 267256
196447 534011
147313 821067
915293 569945
239210 260953
489518 68897
241850 210268
436012 886687
568375 57183
445745 159472
310428 73524
789188 216891
848168 496406
307726 527477
964539 736461
706200 146414
922529 715196
89075 2481
420448 203790
160595 179970
58491 986498
774342 314774
322731 12969
108498 470542
477594 459588
343202 521465
115092 167187
391020 938919
638736 150788
435008 628352
361448 324756
84199 457535
642699 830824
682630 813557
367965 260389
435383 164186
425315 499637
610187 396038
67919 495955
729548 484859
220952 780563
396444 127556
123304 51571
801336 567798
909157 774612
136221 324891
483660 78890
378838 327332
201688 126018
943466 579971
94731 864668
370547 392548
386005 420484
465927 828276
167026 117293
33287 582840
384024 438190
698881 529042
399474 345791
612174 451363
616430 165423
280629 756159
480000 374263
850556 87489
642534 881835
652214 956276
207410 117627
726691 262010
994436 945079
981007 381681
435054 782179
89699 450848
100063 395095
550500 947704
395341 324802
784617 992050
819531 231915
682005 808058
348993 548636
208394 126087
184129 661538
942898 276118
842518 86179
30543 238752
701936 847901
316350 104265
680116 195429
300825 57950
793115 131866
49887 452085
504413 477929
692798 528725
640437 910973
961447 673645
136242 945565
36591 637211
524391 293113
878963 226411
95251 322918
592434 21935
146747 301475
444596 80186
48866 284852
980455 94628
832129 775691
933146 709824
235302 535012
965436 815883
214084 771921
876871 558192
943499 726989
862466 261667
48587 275575
268986 46640
247616 378933
608778 366492
422878 187235
540263 593185
465325 652455
847986 376612
497405 848426
150886 564712
447890 759928
271621 719348
226312 8991
535253 240820
726901 263201
79081 163176
41638 789312
343102 656206
657665 388796
935346 331310
964741 47565
806042 975691
346001 196084
895697 889198
680144 153066
787815 83160
689128 118480
217589 81267
651188 412839
571462 969245
862753 578168
69193 208942
210412 277272
564307 367551
415719 661809
267514 489620
488821 959885
691996 924877
126375 48765
507603 264390
583484 529860
433392 871233
684257 336601
727682 217564
710627 959435
639431 504824
334577 904749
63685 68360
683012 159856
754903 273275
690188 922475
162940 722533
288376 701636
928538 435249
391174 600831
321194 165531
303161 78523
397786 276317
135006 591774
430610 685651
421783 13511
120894 577745
697114 73712
286702 920151
781782 515795
20105 560371
220777 525124
234914 657935
54013 791647
100062 362797
162193 300315
617101 767985
923228 714601
75459 613516
399187 241773
464987 97324
581985 280351
313731 130645
11681 918849
700286 964379
414951 417995
812356 716118
206370 215470
417440 364009
711917 453802
520238 335375
858100 262909
979030 111496
253829 182042
101824 978414
814906 84021
597227 218771
597607 130217
